…
``` r
cluster<- green %>% group_by(cluster)
cluster
```

    ## # A tibble: 7,894 x 23
    ## # Groups:   cluster [693]
    ##    CS_PropertyID cluster   size empl_gr  Rent leasing_rate stories   age
    ##            <dbl>   <dbl>  <dbl>   <dbl> <dbl>        <dbl>   <dbl> <dbl>
    ##  1        379105       1 260300    2.22  38.6         91.4      14    16
    ##  2        122151       1  67861    2.22  28.6         87.1       5    27
    ##  3        379839       1 164848    2.22  33.3         88.9      13    36
    ##  4         94614       1  93372    2.22  35           97.0      13    46
    ##  5        379285       1 174307    2.22  40.7         96.6      16     5
    ##  6         94765       1 231633    2.22  43.2         92.7      14    20
    ##  7        236739       6 210038    4.01  12.5         94.3      11    38
    ##  8        234578       6 225895    4.01  14.8         91.0      15    24
    ##  9         42087       6 912011    4.01  17           99.3      31    34
    ## 10        233989       6 518578    4.01  17           93.5      21    36
    ## # ... with 7,884 more rows, and 15 more variables: renovated <dbl>,
    ## #   class_a <dbl>, class_b <dbl>, LEED <dbl>, Energystar <dbl>,
    ## #   green_rating <dbl>, net <dbl>, amenities <dbl>, cd_total_07 <dbl>,
    ## #   hd_total07 <dbl>, total_dd_07 <dbl>, Precipitation <dbl>,
    ## #   Gas_Costs <dbl>, Electricity_Costs <dbl>, cluster_rent <dbl>
…
We decide to only exam the clusters that have similar weather to Austin, so our conclusion would be more relatable and convincing. We take out the data with "net=1" because residents pay their own utility bills and as building owners won't save much.

``` r
green_zero = green %>% filter(net == 0 ) 
green_one = green %>% filter(net == 1 )

a = data.frame(group ="cd",value= green_zero$cd_total_07)
b = data.frame(group = "hd", value= green_zero$hd_total07)
plot.data = rbind(a, b) 
plot.data %>% group_by(group)
```

    ## # A tibble: 15,240 x 2
    ## # Groups:   group [2]
    ##    group value
    ##    <fct> <dbl>
    ##  1 cd     4988
    ##  2 cd     4988
    ##  3 cd     4988
    ##  4 cd     4988
    ##  5 cd     4988
    ##  6 cd     4988
    ##  7 cd     2746
    ##  8 cd     2746
    ##  9 cd     2746
    ## 10 cd     2746
    ## # ... with 15,230 more rows
…
``` r
three_q= quantile(green_zero$hd_total07, .5)

green_filter = green_zero  %>% 
  filter(green_zero$cd_total_07 < one_q)

green_filt = green_filter %>%
  filter(green_filter$hd_total07 > three_q)

print(green_filt)
```

    ## # A tibble: 788 x 23
    ##    CS_PropertyID cluster   size empl_gr  Rent leasing_rate stories   age
    ##            <dbl>   <dbl>  <dbl>   <dbl> <dbl>        <dbl>   <dbl> <dbl>
    ##  1       1212036      20 385469      NA  18.0         99.5      14    20
    ##  2       1211872      20 127982      NA  15           82.3      18    86
    ##  3       1212027      20  63150      NA  15           66.2       6    85
    ##  4       1216881      20  98725      NA  15.5         85.8       6    97
    ##  5       1211896      20   3000      NA  16           50         4   127
    ##  6       1216662      20  13100      NA  16           11.0       1    45
    ##  7       1211247      20 850000      NA  16.5         95.9      11    90
    ##  8       1211853      20  70377      NA  18           75.4       6    45
    ##  9       1215535      20 300000      NA  18           63.4      27    40
    ## 10       1216862      20 309686      NA  18.6         86.1       8    81
    ## # ... with 778 more rows, and 15 more variables: renovated <dbl>,
    ## #   class_a <dbl>, class_b <dbl>, LEED <dbl>, Energystar <dbl>,
    ## #   green_rating <dbl>, net <dbl>, amenities <dbl>, cd_total_07 <dbl>,
    ## #   hd_total07 <dbl>, total_dd_07 <dbl>, Precipitation <dbl>,
    ## #   Gas_Costs <dbl>, Electricity_Costs <dbl>, cluster_rent <dbl>

``` r
green_filt%>% group_by(cluster)%>%summarize(count = n())
```

    ## # A tibble: 52 x 2
    ##    cluster count
    ##      <dbl> <int>
    ##  1      20    22
    ##  2      52    19
    ##  3      58     4
    ##  4      81    14
    ##  5      87    35
    ##  6      93     5
    ##  7     142     1
    ##  8     164     4
    ##  9     167     9
    ## 10     174     4
    ## # ... with 42 more rows
…
    ## [1] 27500

We found out that in clusters that have similar weathcer as Austin, the rent median difference isn't that great bewteen green and non-green buildings. So there is a way smaller "extra revenue" we gonna make and so far ($27,500, comparing to 650,000 computed by the guy), it seems we will recuperate the green building costs in way longer than the 7 years time period he calculated. So bad deal?

We continue to explore the revenue generated by energy savings.

``` r
df_green
```

    ## # A tibble: 45 x 23
    ##    CS_PropertyID cluster   size empl_gr  Rent leasing_rate stories   age
    ##            <dbl>   <dbl>  <dbl>   <dbl> <dbl>        <dbl>   <dbl> <dbl>
    ##  1       1212036      20 385469   NA     18.0         99.5      14    20
    ##  2        717047      52 315133    3.39  25.2         81.2      20    25
    ##  3       1258500      58  60185    0.47  16           94.5       3    27
    ##  4        469978      81 408459    2.44  37.9         92.6      24    24
    ##  5         42051      87  56303    2.44  24.2         89.7       5    97
    ##  6        804325      93 239250    2.44  37.5         97.3      14    13
    ##  7       1271164     164  98567    0.47  14           98.2       3     5
    ##  8       1376269     167 149426    4.02  14.5         93.9      14    39
    ##  9        717026     174  30000    3.39  15.9         96.1       3    98
    ## 10        102132     175 215000    0.26  16           88.4       6    95
    ## # ... with 35 more rows, and 15 more variables: renovated <dbl>,
    ## #   class_a <dbl>, class_b <dbl>, LEED <dbl>, Energystar <dbl>,
    ## #   green_rating <dbl>, net <dbl>, amenities <dbl>, cd_total_07 <dbl>,
    ## #   hd_total07 <dbl>, total_dd_07 <dbl>, Precipitation <dbl>,
    ## #   Gas_Costs <dbl>, Electricity_Costs <dbl>, cluster_rent <dbl>

``` r
df_green$gas = df_green$cd_total_07 * df_green$Gas_Costs
df_green$elec = df_green$hd_total07 * df_green$Electricity_Costs

df_green$total_saved = (df_green$gas + df_green$elec) * 0.25
df_green$total_cost = (df_green$gas + df_green$elec) * 0.75
df_green
```

    ## # A tibble: 45 x 27
    ##    CS_PropertyID cluster   size empl_gr  Rent leasing_rate stories   age
    ##            <dbl>   <dbl>  <dbl>   <dbl> <dbl>        <dbl>   <dbl> <dbl>
    ##  1       1212036      20 385469   NA     18.0         99.5      14    20
    ##  2        717047      52 315133    3.39  25.2         81.2      20    25
    ##  3       1258500      58  60185    0.47  16           94.5       3    27
    ##  4        469978      81 408459    2.44  37.9         92.6      24    24
    ##  5         42051      87  56303    2.44  24.2         89.7       5    97
    ##  6        804325      93 239250    2.44  37.5         97.3      14    13
    ##  7       1271164     164  98567    0.47  14           98.2       3     5
    ##  8       1376269     167 149426    4.02  14.5         93.9      14    39
    ##  9        717026     174  30000    3.39  15.9         96.1       3    98
    ## 10        102132     175 215000    0.26  16           88.4       6    95
    ## # ... with 35 more rows, and 19 more variables: renovated <dbl>,
    ## #   class_a <dbl>, class_b <dbl>, LEED <dbl>, Energystar <dbl>,
    ## #   green_rating <dbl>, net <dbl>, amenities <dbl>, cd_total_07 <dbl>,
    ## #   hd_total07 <dbl>, total_dd_07 <dbl>, Precipitation <dbl>,
    ## #   Gas_Costs <dbl>, Electricity_Costs <dbl>, cluster_rent <dbl>,
    ## #   gas <dbl>, elec <dbl>, total_saved <dbl>, total_cost <dbl>
…
    ## # A tibble: 1 x 2
    ##   Origin count
    ##   <fct>  <int>
    ## 1 AUS      732

``` r
c1 = cancel %>%
  group_by(Origin, CancellationCode) %>%
  summarize(count = sum(Cancelled))
c1
```

    ## # A tibble: 71 x 3
    ## # Groups:   Origin [37]
    ##    Origin CancellationCode count
    ##    <fct>  <fct>            <int>
    ##  1 ABQ    A                    4
    ##  2 ABQ    B                    2
    ##  3 ATL    A                   17
    ##  4 ATL    B                   15
    ##  5 ATL    C                    2
    ##  6 AUS    A                  390
    ##  7 AUS    B                  294
    ##  8 AUS    C                   48
    ##  9 BOS    A                    1
    ## 10 BOS    B                    1
    ## # ... with 61 more rows
…
